…
zip_count = a_zillow_df %>% 
  filter(!is.na(value)) %>%
  group_by(region_name) %>% 
  summarise(count = n())
```

### 2-1-a How many ZIP codes are observed 116 times?

``` r
obs_116_times = zip_count %>% 
  filter(count == 116) %>% 
  print()
```

    ## # A tibble: 48 × 2
    ##    region_name count
    ##          <dbl> <int>
    ##  1       10001   116
    ##  2       10002   116
    ##  3       10003   116
    ##  4       10005   116
    ##  5       10010   116
    ##  6       10012   116
    ##  7       10013   116
    ##  8       10014   116
    ##  9       10017   116
    ## 10       10018   116
    ## # ℹ 38 more rows

According to the printed results, there are 48 zip codes that were
observed 116 times in total.

### 2-1-b How many are observed fewer than 10 times?

``` r
obs_less_than_10 = zip_count %>% 
  filter(count < 10) %>% 
  print()
```

    ## # A tibble: 26 × 2
    ##    region_name count
    ##          <dbl> <int>
    ##  1       10044     9
    ##  2       10162     2
    ##  3       10303     2
    ##  4       10308     3
    ##  5       10453     1
    ##  6       10455     3
    ##  7       10456     4
    ##  8       10459     2
    ##  9       10460     2
    ## 10       10470     1
    ## # ℹ 16 more rows
…
